p8105_hw4_yp2463
…
library(janitor)
library(readxl)
library(haven)
library(ggplot2)
library(ggridges)

Read and Clean the Data-Yue

pups_data = read_csv("FAS_pups copy.csv" , col_types = "ciiiii") %>% 
  clean_names() %>% 
  gather(key ="pd_landmarks", value = "postnatal_days", pd_ears:pd_walk)

pups_data

## # A tibble: 1,252 x 4
##    litter_number   sex pd_landmarks postnatal_days
##            <chr> <int>        <chr>          <int>
##  1           #85     1      pd_ears              4
##  2           #85     1      pd_ears              4
##  3     #1/2/95/2     1      pd_ears              5
##  4     #1/2/95/2     1      pd_ears              5
##  5 #5/5/3/83/3-3     1      pd_ears              5
##  6 #5/5/3/83/3-3     1      pd_ears              5
##  7   #5/4/2/95/2     1      pd_ears             NA
##  8   #4/2/95/3-3     1      pd_ears              4
##  9   #4/2/95/3-3     1      pd_ears              4
## 10   #2/2/95/3-2     1      pd_ears              4
## # ... with 1,242 more rows
…
